…
``` r
paired_toydata <- spread_pairs(
  toydata, 
  name_key = att_name, 
  value_key = att_val, 
  other_keys = c("id", "group")
  )

paired_toydata
#> # A tibble: 44,000 × 6
#>    att_name1 att_val1    id group att_name2 att_val2
#>    <chr>        <dbl> <dbl> <chr> <chr>        <dbl>
#>  1 att2val         NA     1 them  att4val          1
#>  2 att2val         NA     1 them  att5val          2
#>  3 att2val         NA     1 them  att10val         7
#>  4 att2val         NA     1 them  att11val         8
#>  5 att2val         NA     1 them  att100val       55
#>  6 att2val         NA     1 them  att101val       57
#>  7 att4val          1     1 them  att5val          2
#>  8 att4val          1     1 them  att10val         7
#>  9 att4val          1     1 them  att11val         8
#> 10 att4val          1     1 them  att100val       55
#> # ℹ 43,990 more rows
```

The `spread_pairs` function spreads a name-value key across unique pairs
of observations, so that the two resulting value columns can be used to
calculate associational measures of polarization by observed
combinations of attitude item.

``` r
polarize_assoc(
  paired_toydata,
  value_1 = att_val1,
  value_2 = att_val2,
  r_or_r2 = "r",
  by = c("att_name1", "att_name2")
  )
#> # A tibble: 21 × 3
#> # Rowwise:  att_name1, att_name2
#>    att_name1 att_name2        r
#>    <chr>     <chr>        <dbl>
#>  1 att100val att101val -0.0181 
#>  2 att10val  att100val -0.0694 
#>  3 att10val  att101val  0.0126 
#>  4 att10val  att11val   0.00243
#>  5 att11val  att100val -0.0234 
#>  6 att11val  att101val -0.0316 
#>  7 att2val   att100val -0.00673
#>  8 att2val   att101val  0.0365 
#>  9 att2val   att10val   0.0414 
#> 10 att2val   att11val   0.00482
#> # ℹ 11 more rows
```
…
